<?xml version="1.0" encoding="utf-8"?>
<svg xmlns="http://www.w3.org/2000/svg" xmlns:xlink="http://www.w3.org/1999/xlink" viewBox="0 0 133.1 173.6">
	<ellipse fill="#007CFF" class="st0" cx="122.6" cy="10.3" rx="10.1" ry="10.2"/>
	<path fill="#007CFF" d="M36.3,132.1c-10.3,0-20.5,0-30.8,0c1.6,2.8,3.2,5.6,4.8,8.4c17.8-38.5,35.6-77,53.5-115.6
		c2.6-5.5,5.1-11,7.7-16.5c-3.2,0-6.4,0-9.7,0c17.8,38.5,35.6,77,53.5,115.6c2.6,5.5,5.1,11,7.7,16.5c1.6-2.8,3.2-5.6,4.8-8.4
		c-20.3,0-40.6,0-60.9,0c-3,0-5.6,2.6-5.6,5.6c0,10.2,0,20.4,0,30.6c0,7.2,11.2,7.2,11.2,0c0-10.2,0-20.4,0-30.6
		c-1.9,1.9-3.7,3.7-5.6,5.6c20.3,0,40.6,0,60.9,0c4.5,0,6.6-4.7,4.8-8.4C114.7,96.3,96.8,57.8,79,19.3c-2.6-5.5-5.1-11-7.7-16.5
		c-1.7-3.7-8-3.7-9.7,0c-17.8,38.5-35.6,77-53.5,115.6c-2.6,5.5-5.1,11-7.7,16.5c-1.7,3.7,0.3,8.4,4.8,8.4c10.3,0,20.5,0,30.8,0
		C43.4,143.3,43.5,132.1,36.3,132.1L36.3,132.1z"/>
</svg>